252 194 78
445 559 
0 337 490 ACTION_DOWN 
1 599 490 ACTION_POINTER_DOWN 
1 576 564 ACTION_MOVE 
1 552 590 ACTION_MOVE 
0 407 375 ACTION_MOVE 
1 505 615 ACTION_MOVE 
1 482 620 ACTION_MOVE 
0 477 360 ACTION_MOVE 
1 435 616 ACTION_MOVE 
1 411 607 ACTION_MOVE 
0 547 386 ACTION_MOVE 
1 364 548 ACTION_POINTER_UP 
0 571 387 ACTION_UP